%YAML 1.1
%TAG !u! tag:unity3d.com,2011:
--- !u!78 &1
TagManager:
  serializedVersion: 2
  tags:
  - Box
  - Enemy
  - Sword
  - HeartButton
  - EnemyBoarder
  - item
  - FireBolt
  - CoinScore
  layers:
  - Default
  - TransparentFX
  - Ignore Raycast
  - 
  - Water
  - UI
  - 
  - 
  - Sword
  - PlayerBoarder
  - Player
  - Enemy
  - EnemyBoarder
  - Items
  - FireBolt
  - 
  - 
  - 
  - 
  - 
  - 
  - 
  - 
  - 
  - 
  - 
  - 
  - 
  - 
  - 
  - 
  - 
  m_SortingLayers:
  - name: Default
    uniqueID: 0
    locked: 0
  - name: Game
    uniqueID: 2017914815
    locked: 0
  - name: UI
    uniqueID: 159719669
    locked: 0
