%YAML 1.1
%TAG !u! tag:unity3d.com,2011:
--- !u!74 &7400000
AnimationClip:
  m_ObjectHideFlags: 0
  m_PrefabParentObject: {fileID: 0}
  m_PrefabInternal: {fileID: 0}
  m_Name: Idle
  serializedVersion: 6
  m_Legacy: 0
  m_Compressed: 0
  m_UseHighQualityCurve: 1
  m_RotationCurves: []
  m_CompressedRotationCurves: []
  m_EulerCurves: []
  m_PositionCurves: []
  m_ScaleCurves: []
  m_FloatCurves: []
  m_PPtrCurves:
  - curve:
    - time: 0
      value: {fileID: 21300000, guid: b91bf77976d80da4ba68109f1f38b0b2, type: 3}
    - time: 0.083333336
      value: {fileID: 21300000, guid: fd36fbf5889c8204eb4782a6998cae46, type: 3}
    - time: 0.16666667
      value: {fileID: 21300000, guid: b4c8e5e1a14dd9442935bc57d7dbd750, type: 3}
    - time: 0.25
      value: {fileID: 21300000, guid: 3009de3eac6c96f408d51b01fde3dac5, type: 3}
    - time: 0.33333334
      value: {fileID: 21300000, guid: 4b2d01f2a54a6ae4a948a1420d825371, type: 3}
    - time: 0.41666666
      value: {fileID: 21300000, guid: 6722179d7bb416e43858b2cb4fd4b2a7, type: 3}
    - time: 0.5
      value: {fileID: 21300000, guid: c3fa7fb580123d14dbf2c01d17f2c459, type: 3}
    - time: 0.5833333
      value: {fileID: 21300000, guid: eb8ceb9524383f443953b0f4952c3d27, type: 3}
    - time: 0.6666667
      value: {fileID: 21300000, guid: ea2abd95f4046a44b8238b1682712d91, type: 3}
    - time: 0.75
      value: {fileID: 21300000, guid: 577fff327d0ffcf49bbd6d8cfd098582, type: 3}
    - time: 0.8333333
      value: {fileID: 21300000, guid: 443d4af5da783224aa41eafc1a4e78a1, type: 3}
    - time: 0.9166667
      value: {fileID: 21300000, guid: a533d11cd9b852e468935ad1b5e9fbf4, type: 3}
    - time: 1
      value: {fileID: 21300000, guid: f6eb79a38439ccf48910f0fb3a75fe13, type: 3}
    - time: 1.0833334
      value: {fileID: 21300000, guid: 263fafbb3938d3c44b0361a3fa35d54f, type: 3}
    - time: 1.1666666
      value: {fileID: 21300000, guid: f040dda55419033479bbe6daba590d3b, type: 3}
    - time: 1.25
      value: {fileID: 21300000, guid: d28d140f7fae689469ea5d2ff737e554, type: 3}
    - time: 1.3333334
      value: {fileID: 21300000, guid: 78445019d89d1354f8db4077875b0a34, type: 3}
    - time: 1.4166666
      value: {fileID: 21300000, guid: a41e5dd44b316194486e1b03d139f187, type: 3}
    - time: 1.5
      value: {fileID: 21300000, guid: 3fcfdd7d94fb4d64aa52725f837023c3, type: 3}
    - time: 1.5833334
      value: {fileID: 21300000, guid: 2e1f2793b1955514da74aeb42be2391a, type: 3}
    - time: 1.6666666
      value: {fileID: 21300000, guid: b62612eaeccf5b34a987aff0c21f94e1, type: 3}
    - time: 1.75
      value: {fileID: 21300000, guid: 7de4e4f036ccd7844a27a621c3baea2a, type: 3}
    - time: 1.8333334
      value: {fileID: 21300000, guid: f8124856168e38041928c6b71264059c, type: 3}
    - time: 1.9166666
      value: {fileID: 21300000, guid: 8b8127b1c1a3a7f469cebb2e5bef52db, type: 3}
    - time: 2
      value: {fileID: 21300000, guid: bad6e45adc6bcf34d84c59cbf35b94df, type: 3}
    - time: 2.0833333
      value: {fileID: 21300000, guid: c2a5a64c681bfea44a27a2c4b4b0680a, type: 3}
    - time: 2.1666667
      value: {fileID: 21300000, guid: c2c6a3223dd202d4eb18baf2ed7b3998, type: 3}
    - time: 2.25
      value: {fileID: 21300000, guid: 3e34c3b160bbcb34aac780f428185bee, type: 3}
    attribute: m_Sprite
    path: 
    classID: 212
    script: {fileID: 0}
  m_SampleRate: 12
  m_WrapMode: 0
  m_Bounds:
    m_Center: {x: 0, y: 0, z: 0}
    m_Extent: {x: 0, y: 0, z: 0}
  m_ClipBindingConstant:
    genericBindings:
    - serializedVersion: 2
      path: 0
      attribute: 0
      script: {fileID: 0}
      typeID: 212
      customType: 23
      isPPtrCurve: 1
    pptrCurveMapping:
    - {fileID: 21300000, guid: b91bf77976d80da4ba68109f1f38b0b2, type: 3}
    - {fileID: 21300000, guid: fd36fbf5889c8204eb4782a6998cae46, type: 3}
    - {fileID: 21300000, guid: b4c8e5e1a14dd9442935bc57d7dbd750, type: 3}
    - {fileID: 21300000, guid: 3009de3eac6c96f408d51b01fde3dac5, type: 3}
    - {fileID: 21300000, guid: 4b2d01f2a54a6ae4a948a1420d825371, type: 3}
    - {fileID: 21300000, guid: 6722179d7bb416e43858b2cb4fd4b2a7, type: 3}
    - {fileID: 21300000, guid: c3fa7fb580123d14dbf2c01d17f2c459, type: 3}
    - {fileID: 21300000, guid: eb8ceb9524383f443953b0f4952c3d27, type: 3}
    - {fileID: 21300000, guid: ea2abd95f4046a44b8238b1682712d91, type: 3}
    - {fileID: 21300000, guid: 577fff327d0ffcf49bbd6d8cfd098582, type: 3}
    - {fileID: 21300000, guid: 443d4af5da783224aa41eafc1a4e78a1, type: 3}
    - {fileID: 21300000, guid: a533d11cd9b852e468935ad1b5e9fbf4, type: 3}
    - {fileID: 21300000, guid: f6eb79a38439ccf48910f0fb3a75fe13, type: 3}
    - {fileID: 21300000, guid: 263fafbb3938d3c44b0361a3fa35d54f, type: 3}
    - {fileID: 21300000, guid: f040dda55419033479bbe6daba590d3b, type: 3}
    - {fileID: 21300000, guid: d28d140f7fae689469ea5d2ff737e554, type: 3}
    - {fileID: 21300000, guid: 78445019d89d1354f8db4077875b0a34, type: 3}
    - {fileID: 21300000, guid: a41e5dd44b316194486e1b03d139f187, type: 3}
    - {fileID: 21300000, guid: 3fcfdd7d94fb4d64aa52725f837023c3, type: 3}
    - {fileID: 21300000, guid: 2e1f2793b1955514da74aeb42be2391a, type: 3}
    - {fileID: 21300000, guid: b62612eaeccf5b34a987aff0c21f94e1, type: 3}
    - {fileID: 21300000, guid: 7de4e4f036ccd7844a27a621c3baea2a, type: 3}
    - {fileID: 21300000, guid: f8124856168e38041928c6b71264059c, type: 3}
    - {fileID: 21300000, guid: 8b8127b1c1a3a7f469cebb2e5bef52db, type: 3}
    - {fileID: 21300000, guid: bad6e45adc6bcf34d84c59cbf35b94df, type: 3}
    - {fileID: 21300000, guid: c2a5a64c681bfea44a27a2c4b4b0680a, type: 3}
    - {fileID: 21300000, guid: c2c6a3223dd202d4eb18baf2ed7b3998, type: 3}
    - {fileID: 21300000, guid: 3e34c3b160bbcb34aac780f428185bee, type: 3}
  m_AnimationClipSettings:
    serializedVersion: 2
    m_AdditiveReferencePoseClip: {fileID: 0}
    m_AdditiveReferencePoseTime: 0
    m_StartTime: 0
    m_StopTime: 2.3333333
    m_OrientationOffsetY: 0
    m_Level: 0
    m_CycleOffset: 0
    m_HasAdditiveReferencePose: 0
    m_LoopTime: 1
    m_LoopBlend: 0
    m_LoopBlendOrientation: 0
    m_LoopBlendPositionY: 0
    m_LoopBlendPositionXZ: 0
    m_KeepOriginalOrientation: 0
    m_KeepOriginalPositionY: 1
    m_KeepOriginalPositionXZ: 0
    m_HeightFromFeet: 0
    m_Mirror: 0
  m_EditorCurves: []
  m_EulerEditorCurves: []
  m_HasGenericRootTransform: 0
  m_HasMotionFloatCurves: 0
  m_GenerateMotionCurves: 0
  m_Events: []
